error[E0432]: unresolved import `assertx::assert_logs_contain_none`
 --> $DIR/assert_logs_contain_none.rs:1:5
  |
1 | use assertx::assert_logs_contain_none;
  |     ^^^^^^^^^------------------------
  |     |        |
  |     |        help: a similar name exists in the module: `assert_contains_none`
  |     no `assert_logs_contain_none` in the root

error: cannot determine resolution for the macro `assert_logs_contain_none`
 --> $DIR/assert_logs_contain_none.rs:7:5
  |
7 |     assert_logs_contain_none!(logs, Level::Info => "Something");
  |     ^^^^^^^^^^^^^^^^^^^^^^^^
  |
  = note: import resolution is stuck, try simplifying macro imports

error[E0425]: cannot find function `setup_logging_test` in crate `assertx`
 --> $DIR/assert_logs_contain_none.rs:5:25
  |
5 |     let logs = assertx::setup_logging_test();
  |                         ^^^^^^^^^^^^^^^^^^ not found in `assertx`

warning: unused import: `log::Level`
 --> $DIR/assert_logs_contain_none.rs:2:5
  |
2 | use log::Level;
  |     ^^^^^^^^^^
  |
  = note: `#[warn(unused_imports)]` on by default
